Matheus3031
…
Com base neste grfico, nota-se que Florestal  a cidade que possui um maior nmero de estudantes matriculados que residem em uma mesma cidade.  interessante notar que as cidades mais prximas esto na sequncia, como Par de Minas, Betim e Belo Horizonte. Essa proximidade indica que as pessoas preferem estudar em uma faculdade mais prxima, assim, elas podem ir e voltar para a casa em um curto espao de tempo. Vale ressaltar tambm que, Florestal  a cidade com maior risco de alunos se reunirem para fazer uma aglomerao.

Relao de cidades com menos de 10 alunos

df$RESIDENCIA <- stringr::str_trim(df$RESIDENCIA)

tb <- df %>% 
  group_by(RESIDENCIA) %>% 
  summarise(Total=n())

tb <- tb %>% filter(Total<10)

print(tb)

## # A tibble: 40 x 2
##    RESIDENCIA              Total
##    <chr>                   <int>
##  1 ABAETE                      1
##  2 ARARAQUARA                  1
##  3 BARBACENA                   1
##  4 BOM JESUS DO AMPARO         1
##  5 BRUMADINHO                  2
##  6 CACHOEIRO DE ITAPEMIRIM     1
##  7 CAETANO PRETO               1
##  8 CANAA                       1
##  9 CARDOSO MOREIRA             1
## 10 CLAUDIO                     1
## # ... with 30 more rows
…
